9bef2f34da03fd3a7c7d9b35e8c25413 *eve-blueprints-en-US.xml.gzip
34eceb9d1d86b3e030e3e40deb86cc8a *eve-geography-en-US.xml.gzip
6b241dfdbedc3ed3b3e00631dc12300a *eve-items-en-US.xml.gzip
d0627abc2926b8b95a47a6476ee60976 *eve-properties-en-US.xml.gzip
d14e04146f98cae328401030ac8a3ced *eve-reprocessing-en-US.xml.gzip
3beba3ca81db5694332f77db824a3668 *eve-skills-en-US.xml.gzip
